Lecture 13: Dimensionality Reduction, Introduction to Unsupervised Learning – UBC Stat406 2025 W1
…
\[ \boldsymbol Z = \boldsymbol X [\boldsymbol V]_{:,1:k} = \boldsymbol X \boldsymbol Q, \]

We refer to the new features in \(\boldsymbol Z\) as the principal components (PCs) of the data.

Crucially, these PCs are ordered, since the earliest PCs correspond to the largest singular values and thus capture the most variance in the data.

Example: Pop Music Data

Here is a dataset that describes various music songs:

library(tidyverse)
load("../data/popmusic_train.rda")
popmusic_train

# A tibble: 1,269 × 15
   artist      danceability energy   key loudness  mode speechiness acousticness
   <fct>              <dbl>  <dbl> <int>    <dbl> <int>       <dbl>        <dbl>
 1 Taylor Swi…        0.781  0.357     0   -16.4      1      0.912       0.717  
 2 Taylor Swi…        0.627  0.266     9   -15.4      1      0.929       0.796  
 3 Taylor Swi…        0.516  0.917    11    -3.19     0      0.0827      0.0139 
 4 Taylor Swi…        0.629  0.757     1    -8.37     0      0.0512      0.00384
 5 Taylor Swi…        0.686  0.705     9   -10.8      1      0.249       0.832  
 6 Taylor Swi…        0.522  0.691     2    -4.82     1      0.0307      0.00609
 7 Taylor Swi…        0.31   0.374     6    -8.46     1      0.0275      0.761  
 8 Taylor Swi…        0.705  0.621     2    -8.09     1      0.0334      0.101  
 9 Taylor Swi…        0.553  0.604     1    -5.30     0      0.0258      0.202  
10 Taylor Swi…        0.419  0.908     9    -5.16     1      0.0651      0.00048
# ℹ 1,259 more rows
# ℹ 7 more variables: instrumentalness <dbl>, liveness <dbl>, valence <dbl>,
#   tempo <dbl>, time_signature <int>, duration_ms <int>, explicit <lgl>
…
