00 R, Rmarkdown, code, and {tidyverse}: A whirlwind tour
…
```
## # A tibble: 84 × 4
##    geo_value time_value signal                        value
##    <chr>     <date>     <chr>                         <dbl>
##  1 ca        2022-08-01 confirmed_7dav_incidence_prop  45.4
##  2 wa        2022-08-01 confirmed_7dav_incidence_prop  27.7
##  3 ca        2022-08-02 confirmed_7dav_incidence_prop  44.9
##  4 wa        2022-08-02 confirmed_7dav_incidence_prop  27.7
##  5 ca        2022-08-03 confirmed_7dav_incidence_prop  44.5
##  6 wa        2022-08-03 confirmed_7dav_incidence_prop  26.6
##  7 ca        2022-08-04 confirmed_7dav_incidence_prop  42.3
##  8 wa        2022-08-04 confirmed_7dav_incidence_prop  26.6
##  9 ca        2022-08-05 confirmed_7dav_incidence_prop  40.7
## 10 wa        2022-08-05 confirmed_7dav_incidence_prop  34.6
## # … with 74 more rows
```
…
```r
joined <- full_join(
  cases, deaths, 
  by = c("geo_value", "time_value"))
```

Do the same thing by pivoting

```r
covid %>% 
  pivot_wider(names_from = signal, values_from = value)
```

```
## # A tibble: 42 × 4
##    geo_value time_value case_rate death_rate
##    <chr>     <date>         <dbl>      <dbl>
##  1 ca        2022-08-01      45.4      0.104
##  2 wa        2022-08-01      27.7      0.169
##  3 ca        2022-08-02      44.9      0.105
##  4 wa        2022-08-02      27.7      0.169
##  5 ca        2022-08-03      44.5      0.109
##  6 wa        2022-08-03      26.6      0.173
##  7 ca        2022-08-04      42.3      0.115
##  8 wa        2022-08-04      26.6      0.173
##  9 ca        2022-08-05      40.7      0.118
## 10 wa        2022-08-05      34.6      0.225
## # … with 32 more rows
```
…
