02 Linear model example
…
---

## Economic mobility

```r
library(tidyverse)
data(mobility, package = "Stat406")
mobility
```

```
## # A tibble: 741 × 43
##       ID Name    Mobil…¹ State Popul…² Urban Black Seg_r…³ Seg_i…⁴ Seg_p…⁵ Seg_a…⁶
##    <dbl> <chr>     <dbl> <chr>   <dbl> <dbl> <dbl>   <dbl>   <dbl>   <dbl>   <dbl>
##  1   100 Johnso…  0.0622 TN     576081     1 0.021   0.09    0.035   0.03    0.038
##  2   200 Morris…  0.0537 TN     227816     1 0.02    0.093   0.026   0.028   0.025
##  3   301 Middle…  0.0726 TN      66708     0 0.015   0.064   0.024   0.015   0.026
##  4   302 Knoxvi…  0.0563 TN     727600     1 0.056   0.21    0.092   0.084   0.102
##  5   401 Winsto…  0.0448 NC     493180     1 0.174   0.262   0.072   0.061   0.081
##  6   402 Martin…  0.0518 VA      92753     0 0.224   0.137   0.024   0.015   0.028
##  7   500 Greens…  0.0474 NC    1055133     1 0.218   0.22    0.068   0.058   0.077
##  8   601 North …  0.0517 NC      90016     0 0.032   0.114   0.012   0.009   0.012
##  9   602 Galax    0.0796 VA      64676     0 0.029   0.131   0.005   0.004   0.006
## 10   700 Sparta…  0.0431 SC     354533     1 0.207   0.139   0.045   0.044   0.045
## # … with 731 more rows, 32 more variables: Commute <dbl>, Income <dbl>,
## #   Gini <dbl>, Share01 <dbl>, Gini_99 <dbl>, Middle_class <dbl>,
## #   Local_tax_rate <dbl>, Local_gov_spending <dbl>, Progressivity <dbl>,
## #   EITC <dbl>, School_spending <dbl>, Student_teacher_ratio <dbl>,
## #   Test_scores <dbl>, HS_dropout <dbl>, Colleges <dbl>, Tuition <dbl>,
## #   Graduation <dbl>, Labor_force_participation <dbl>, Manufacturing <dbl>,
## #   Chinese_imports <dbl>, Teenage_labor <dbl>, Migration_in <dbl>, …
```
…
