02 Linear model example
…
---

## Economic mobility

* `mobility` in the course R package. For documentation, try `?mobility`

```r
library(UBCstat406labs)
library(tidyverse)
mobility
```

```
## # A tibble: 741 x 43
##       ID Name  Mobility State Population Urban Black Seg_racial Seg_income
##    <dbl> <chr>    <dbl> <chr>      <dbl> <dbl> <dbl>      <dbl>      <dbl>
##  1   100 John…   0.0622 TN        576081     1 0.021      0.09       0.035
##  2   200 Morr…   0.0537 TN        227816     1 0.02       0.093      0.026
##  3   301 Midd…   0.0726 TN         66708     0 0.015      0.064      0.024
##  4   302 Knox…   0.0563 TN        727600     1 0.056      0.21       0.092
##  5   401 Wins…   0.0448 NC        493180     1 0.174      0.262      0.072
##  6   402 Mart…   0.0518 VA         92753     0 0.224      0.137      0.024
##  7   500 Gree…   0.0474 NC       1055133     1 0.218      0.22       0.068
##  8   601 Nort…   0.0517 NC         90016     0 0.032      0.114      0.012
##  9   602 Galax   0.0796 VA         64676     0 0.029      0.131      0.005
## 10   700 Spar…   0.0431 SC        354533     1 0.207      0.139      0.045
## # … with 731 more rows, and 34 more variables: Seg_poverty <dbl>,
## #   Seg_affluence <dbl>, Commute <dbl>, Income <dbl>, Gini <dbl>,
## #   Share01 <dbl>, Gini_99 <dbl>, Middle_class <dbl>, Local_tax_rate <dbl>,
## #   Local_gov_spending <dbl>, Progressivity <dbl>, EITC <dbl>,
## #   School_spending <dbl>, Student_teacher_ratio <dbl>, Test_scores <dbl>,
## #   HS_dropout <dbl>, Colleges <dbl>, Tuition <dbl>, Graduation <dbl>,
## #   Labor_force_participation <dbl>, Manufacturing <dbl>,
## #   Chinese_imports <dbl>, Teenage_labor <dbl>, Migration_in <dbl>,
## #   Migration_out <dbl>, Foreign_born <dbl>, Social_capital <dbl>,
…
???

Why don't we include `Name` or `ID`?

---

## Results

```r
full %>% broom::tidy()
```

```
## # A tibble: 40 x 5
##    term           estimate     std.error statistic p.value
##    <chr>             <dbl>         <dbl>     <dbl>   <dbl>
##  1 (Intercept)    2.23e- 1 0.0834           2.67   0.00799
##  2 Population     8.09e-10 0.00000000236    0.343  0.732  
##  3 Urban         -3.93e- 4 0.00408         -0.0964 0.923  
##  4 Black          9.17e- 2 0.0299           3.07   0.00236
##  5 Seg_racial    -3.13e- 2 0.0188          -1.66   0.0974 
##  6 Seg_income     1.92e+ 0 0.961            2.00   0.0469 
##  7 Seg_poverty   -1.33e+ 0 0.513           -2.59   0.0101 
##  8 Seg_affluence -7.44e- 1 0.484           -1.54   0.125  
##  9 Commute        7.27e- 2 0.0295           2.47   0.0142 
## 10 Income         4.98e- 7 0.000000669      0.745  0.457  
## # … with 30 more rows
```
…
